# Created on 2017-12-14T15:29:30.836
java.lang.NoClassDefFoundError: org/junit/runner/notification/RunListener
	at java.base/java.lang.Class.getDeclaredConstructors0(Native Method)
	at java.base/java.lang.Class.privateGetDeclaredConstructors(Class.java:3110)
	at java.base/java.lang.Class.getConstructor0(Class.java:3315)
	at java.base/java.lang.Class.getConstructor(Class.java:2108)
	at org.apache.maven.surefire.util.ReflectionUtils.getConstructor(ReflectionUtils.java:83)
	at org.apache.maven.surefire.util.ReflectionUtils.instantiateOneArg(ReflectionUtils.java:134)
	at org.apache.maven.surefire.booter.ForkedBooter.createProviderInCurrentClassloader(ForkedBooter.java:392)
	at org.apache.maven.surefire.booter.ForkedBooter.invokeProviderInSameClassLoader(ForkedBooter.java:372)
	at org.apache.maven.surefire.booter.ForkedBooter.runSuitesInProcess(ForkedBooter.java:334)
	at org.apache.maven.surefire.booter.ForkedBooter.execute(ForkedBooter.java:119)
	at org.apache.maven.surefire.booter.ForkedBooter.main(ForkedBooter.java:407)
Caused by: java.lang.ClassNotFoundException: org.junit.runner.notification.RunListener
	at java.base/jdk.internal.loader.BuiltinClassLoader.loadClass(BuiltinClassLoader.java:582)
	at java.base/jdk.internal.loader.ClassLoaders$AppClassLoader.loadClass(ClassLoaders.java:185)
	at java.base/java.lang.ClassLoader.loadClass(ClassLoader.java:496)
	... 11 more


